EESchema Schematic File Version 4
EELAYER 30 0
EELAYER END
$Descr A4 11693 8268
encoding utf-8
Sheet 1 1
Title "SecretKey"
Date "2021-06-14"
Rev "1.1"
Comp ""
Comment1 "licensed under CERN-OHL-W v2 or later (https://cern.ch/cern-ohl)"
Comment2 "This project is Open Source Hardware"
Comment3 "Copyright (c) PurkkaKoodari 2020-2021"
Comment4 ""
$EndDescr
$Comp
L Security:ATECC608A-SSHDA U2
U 1 1 5F92CA8D
P 8950 5650
F 0 "U2" H 8720 5696 50  0000 R CNN
F 1 "ATECC608A-SSHDA" H 8720 5605 50  0000 R CNN
F 2 "Package_SO:SOIC-8_3.9x4.9mm_P1.27mm" H 8950 5650 50  0001 C CNN
F 3 "http://ww1.microchip.com/downloads/en/DeviceDoc/ATECC608A-CryptoAuthentication-Device-Summary-Data-Sheet-DS40001977B.pdf" H 9100 5900 50  0001 C CNN
F 4 "C376619" H 8950 5650 50  0001 C CNN "LCSC"
	1    8950 5650
	-1   0    0    -1  
$EndComp
$Comp
L power:GND #PWR012
U 1 1 5F9322A8
P 4950 5100
F 0 "#PWR012" H 4950 4850 50  0001 C CNN
F 1 "GND" H 4955 4927 50  0000 C CNN
F 2 "" H 4950 5100 50  0001 C CNN
F 3 "" H 4950 5100 50  0001 C CNN
	1    4950 5100
	1    0    0    -1  
$EndComp
Wire Wire Line
	4950 5100 4950 4900
Wire Wire Line
	4950 4900 5050 4900
Wire Wire Line
	5050 4900 5050 4800
Connection ~ 4950 4900
Wire Wire Line
	4950 4900 4950 4800
Wire Wire Line
	8450 5550 8650 5550
Wire Wire Line
	8650 5750 8450 5750
Wire Wire Line
	8950 5200 8950 5300
Wire Wire Line
	4950 950  4950 1050
Wire Wire Line
	4950 1050 5050 1050
Wire Wire Line
	5050 1050 5050 1200
Connection ~ 4950 1050
Wire Wire Line
	4950 1050 4950 1200
Wire Wire Line
	5050 1050 5150 1050
Wire Wire Line
	5150 1050 5150 1200
Connection ~ 5050 1050
$Comp
L power:GND #PWR018
U 1 1 5F9365F6
P 8950 6100
F 0 "#PWR018" H 8950 5850 50  0001 C CNN
F 1 "GND" H 8955 5927 50  0000 C CNN
F 2 "" H 8950 6100 50  0001 C CNN
F 3 "" H 8950 6100 50  0001 C CNN
	1    8950 6100
	1    0    0    -1  
$EndComp
Wire Wire Line
	8950 6100 8950 5950
$Comp
L power:GND #PWR011
U 1 1 5F92B8A4
P 1700 4850
F 0 "#PWR011" H 1700 4600 50  0001 C CNN
F 1 "GND" H 1705 4677 50  0000 C CNN
F 2 "" H 1700 4850 50  0001 C CNN
F 3 "" H 1700 4850 50  0001 C CNN
	1    1700 4850
	1    0    0    -1  
$EndComp
$Comp
L Connector:USB_C_Plug P1
U 1 1 5F9394CA
P 1700 3100
F 0 "P1" H 1807 4367 50  0000 C CNN
F 1 "USB_C_Plug" H 1807 4276 50  0000 C CNN
F 2 "Connector_USB:USB_C_Receptacle_HRO_TYPE-C-31-M-12" H 1850 3100 50  0001 C CNN
F 3 "https://www.usb.org/sites/default/files/documents/usb_type-c.zip" H 1850 3100 50  0001 C CNN
	1    1700 3100
	1    0    0    -1  
$EndComp
Wire Wire Line
	1700 4850 1700 4800
Wire Wire Line
	1700 4800 1400 4800
Wire Wire Line
	1400 4800 1400 4700
Connection ~ 1700 4800
Wire Wire Line
	1700 4800 1700 4700
$Comp
L Switch:SW_Push SW2
U 1 1 5F9408F6
P 9300 1550
F 0 "SW2" H 9300 1835 50  0000 C CNN
F 1 "SW_Push" H 9300 1744 50  0000 C CNN
F 2 "Button_Switch_THT:SW_PUSH_6mm" H 9300 1750 50  0001 C CNN
F 3 "~" H 9300 1750 50  0001 C CNN
	1    9300 1550
	1    0    0    -1  
$EndComp
$Comp
L authstick:Display_OLED_I2C_0.49in D1
U 1 1 5F9482C4
P 7100 5600
F 0 "D1" H 7378 5646 50  0000 L CNN
F 1 "Display_OLED_I2C_0.49in" H 7378 5555 50  0000 L CNN
F 2 "authstick:Display_OLED_I2C_0.49in" H 6400 5500 50  0001 C CNN
F 3 "" H 6400 5500 50  0001 C CNN
	1    7100 5600
	1    0    0    -1  
$EndComp
Wire Wire Line
	6550 5550 6750 5550
Wire Wire Line
	6750 5650 6550 5650
Wire Wire Line
	7100 5150 7100 5300
$Comp
L power:GND #PWR019
U 1 1 5F94B266
P 7100 6050
F 0 "#PWR019" H 7100 5800 50  0001 C CNN
F 1 "GND" H 7105 5877 50  0000 C CNN
F 2 "" H 7100 6050 50  0001 C CNN
F 3 "" H 7100 6050 50  0001 C CNN
	1    7100 6050
	1    0    0    -1  
$EndComp
Wire Wire Line
	7100 6050 7100 5900
$Comp
L Switch:SW_Push SW3
U 1 1 5F94CDBE
P 10300 1550
F 0 "SW3" H 10300 1835 50  0000 C CNN
F 1 "SW_Push" H 10300 1744 50  0000 C CNN
F 2 "Button_Switch_THT:SW_PUSH_6mm" H 10300 1750 50  0001 C CNN
F 3 "~" H 10300 1750 50  0001 C CNN
	1    10300 1550
	1    0    0    -1  
$EndComp
$Comp
L Switch:SW_Push SW5
U 1 1 5F95127A
P 9300 2050
F 0 "SW5" H 9300 2335 50  0000 C CNN
F 1 "SW_Push" H 9300 2244 50  0000 C CNN
F 2 "Button_Switch_THT:SW_PUSH_6mm" H 9300 2250 50  0001 C CNN
F 3 "~" H 9300 2250 50  0001 C CNN
	1    9300 2050
	1    0    0    -1  
$EndComp
$Comp
L Switch:SW_Push SW6
U 1 1 5F951280
P 10300 2050
F 0 "SW6" H 10300 2335 50  0000 C CNN
F 1 "SW_Push" H 10300 2244 50  0000 C CNN
F 2 "Button_Switch_THT:SW_PUSH_6mm" H 10300 2250 50  0001 C CNN
F 3 "~" H 10300 2250 50  0001 C CNN
	1    10300 2050
	1    0    0    -1  
$EndComp
$Comp
L Switch:SW_Push SW1
U 1 1 5F9570FC
P 8300 1550
F 0 "SW1" H 8300 1835 50  0000 C CNN
F 1 "SW_Push" H 8300 1744 50  0000 C CNN
F 2 "Button_Switch_THT:SW_PUSH_6mm" H 8300 1750 50  0001 C CNN
F 3 "~" H 8300 1750 50  0001 C CNN
	1    8300 1550
	1    0    0    -1  
$EndComp
$Comp
L Switch:SW_Push SW4
U 1 1 5F957108
P 8300 2050
F 0 "SW4" H 8300 2335 50  0000 C CNN
F 1 "SW_Push" H 8300 2244 50  0000 C CNN
F 2 "Button_Switch_THT:SW_PUSH_6mm" H 8300 2250 50  0001 C CNN
F 3 "~" H 8300 2250 50  0001 C CNN
	1    8300 2050
	1    0    0    -1  
$EndComp
$Comp
L Switch:SW_Push SW8
U 1 1 5F95DE34
P 9300 2550
F 0 "SW8" H 9300 2835 50  0000 C CNN
F 1 "SW_Push" H 9300 2744 50  0000 C CNN
F 2 "Button_Switch_THT:SW_PUSH_6mm" H 9300 2750 50  0001 C CNN
F 3 "~" H 9300 2750 50  0001 C CNN
	1    9300 2550
	1    0    0    -1  
$EndComp
$Comp
L Switch:SW_Push SW9
U 1 1 5F95DE3A
P 10300 2550
F 0 "SW9" H 10300 2835 50  0000 C CNN
F 1 "SW_Push" H 10300 2744 50  0000 C CNN
F 2 "Button_Switch_THT:SW_PUSH_6mm" H 10300 2750 50  0001 C CNN
F 3 "~" H 10300 2750 50  0001 C CNN
	1    10300 2550
	1    0    0    -1  
$EndComp
$Comp
L Switch:SW_Push SW11
U 1 1 5F95DE40
P 9300 3050
F 0 "SW11" H 9300 3335 50  0000 C CNN
F 1 "SW_Push" H 9300 3244 50  0000 C CNN
F 2 "Button_Switch_THT:SW_PUSH_6mm" H 9300 3250 50  0001 C CNN
F 3 "~" H 9300 3250 50  0001 C CNN
	1    9300 3050
	1    0    0    -1  
$EndComp
$Comp
L Switch:SW_Push SW12
U 1 1 5F95DE46
P 10300 3050
F 0 "SW12" H 10300 3335 50  0000 C CNN
F 1 "SW_Push" H 10300 3244 50  0000 C CNN
F 2 "Button_Switch_THT:SW_PUSH_6mm" H 10300 3250 50  0001 C CNN
F 3 "~" H 10300 3250 50  0001 C CNN
	1    10300 3050
	1    0    0    -1  
$EndComp
$Comp
L Switch:SW_Push SW7
U 1 1 5F95DE4C
P 8300 2550
F 0 "SW7" H 8300 2835 50  0000 C CNN
F 1 "SW_Push" H 8300 2744 50  0000 C CNN
F 2 "Button_Switch_THT:SW_PUSH_6mm" H 8300 2750 50  0001 C CNN
F 3 "~" H 8300 2750 50  0001 C CNN
	1    8300 2550
	1    0    0    -1  
$EndComp
$Comp
L Switch:SW_Push SW10
U 1 1 5F95DE52
P 8300 3050
F 0 "SW10" H 8300 3335 50  0000 C CNN
F 1 "SW_Push" H 8300 3244 50  0000 C CNN
F 2 "Button_Switch_THT:SW_PUSH_6mm" H 8300 3250 50  0001 C CNN
F 3 "~" H 8300 3250 50  0001 C CNN
	1    8300 3050
	1    0    0    -1  
$EndComp
NoConn ~ 2300 3100
NoConn ~ 2300 3200
NoConn ~ 2300 3400
NoConn ~ 2300 3500
NoConn ~ 2300 3700
NoConn ~ 2300 3800
NoConn ~ 2300 4000
NoConn ~ 2300 4100
NoConn ~ 2300 4300
NoConn ~ 2300 4400
$Comp
L power:GND #PWR08
U 1 1 5F969259
P 8650 3350
F 0 "#PWR08" H 8650 3100 50  0001 C CNN
F 1 "GND" H 8655 3177 50  0000 C CNN
F 2 "" H 8650 3350 50  0001 C CNN
F 3 "" H 8650 3350 50  0001 C CNN
	1    8650 3350
	1    0    0    -1  
$EndComp
Wire Wire Line
	8500 3050 8650 3050
Wire Wire Line
	8650 2550 8500 2550
Wire Wire Line
	8500 2050 8650 2050
Wire Wire Line
	8500 1550 8650 1550
$Comp
L power:GND #PWR09
U 1 1 5F96D142
P 9650 3350
F 0 "#PWR09" H 9650 3100 50  0001 C CNN
F 1 "GND" H 9655 3177 50  0000 C CNN
F 2 "" H 9650 3350 50  0001 C CNN
F 3 "" H 9650 3350 50  0001 C CNN
	1    9650 3350
	1    0    0    -1  
$EndComp
Wire Wire Line
	9500 3050 9650 3050
Wire Wire Line
	9650 2550 9500 2550
Wire Wire Line
	9500 2050 9650 2050
Wire Wire Line
	9500 1550 9650 1550
$Comp
L power:GND #PWR010
U 1 1 5F96E3BA
P 10650 3350
F 0 "#PWR010" H 10650 3100 50  0001 C CNN
F 1 "GND" H 10655 3177 50  0000 C CNN
F 2 "" H 10650 3350 50  0001 C CNN
F 3 "" H 10650 3350 50  0001 C CNN
	1    10650 3350
	1    0    0    -1  
$EndComp
Wire Wire Line
	10500 3050 10650 3050
Wire Wire Line
	10650 2550 10500 2550
Wire Wire Line
	10500 2050 10650 2050
Wire Wire Line
	10500 1550 10650 1550
Wire Wire Line
	8650 1550 8650 2050
Wire Wire Line
	9650 1550 9650 2050
Wire Wire Line
	10650 1550 10650 2050
Connection ~ 10650 2050
Wire Wire Line
	10650 2050 10650 2550
Connection ~ 10650 2550
Wire Wire Line
	10650 2550 10650 3050
Connection ~ 10650 3050
Wire Wire Line
	10650 3050 10650 3350
Connection ~ 9650 2050
Wire Wire Line
	9650 2050 9650 2550
Connection ~ 9650 2550
Wire Wire Line
	9650 2550 9650 3050
Connection ~ 9650 3050
Wire Wire Line
	9650 3050 9650 3350
Connection ~ 8650 2050
Wire Wire Line
	8650 2050 8650 2550
Connection ~ 8650 2550
Wire Wire Line
	8650 2550 8650 3050
Connection ~ 8650 3050
Wire Wire Line
	8650 3050 8650 3350
Wire Wire Line
	2450 1950 2450 2100
Wire Wire Line
	2450 2100 2300 2100
NoConn ~ 2300 2400
NoConn ~ 2300 2300
$Comp
L Device:R_Small R1
U 1 1 5F9B5881
P 2400 6350
F 0 "R1" H 2459 6396 50  0000 L CNN
F 1 "1k" H 2459 6305 50  0000 L CNN
F 2 "Resistor_SMD:R_0603_1608Metric_Pad1.05x0.95mm_HandSolder" H 2400 6350 50  0001 C CNN
F 3 "~" H 2400 6350 50  0001 C CNN
F 4 "C11702" H 2400 6350 50  0001 C CNN "LCSC"
	1    2400 6350
	1    0    0    -1  
$EndComp
$Comp
L Device:LED_Small D3
U 1 1 5F9B9525
P 2400 6700
F 0 "D3" V 2446 6632 50  0000 R CNN
F 1 "Red" V 2355 6632 50  0000 R CNN
F 2 "LED_SMD:LED_0603_1608Metric_Pad1.05x0.95mm_HandSolder" V 2400 6700 50  0001 C CNN
F 3 "~" V 2400 6700 50  0001 C CNN
	1    2400 6700
	0    -1   -1   0   
$EndComp
Wire Wire Line
	2400 6600 2400 6450
$Comp
L power:GND #PWR021
U 1 1 5F9BD6D0
P 2400 6950
F 0 "#PWR021" H 2400 6700 50  0001 C CNN
F 1 "GND" H 2405 6777 50  0000 C CNN
F 2 "" H 2400 6950 50  0001 C CNN
F 3 "" H 2400 6950 50  0001 C CNN
	1    2400 6950
	1    0    0    -1  
$EndComp
Wire Wire Line
	2400 6950 2400 6850
$Comp
L Device:C_Small C6
U 1 1 5FA5487A
P 3350 1650
F 0 "C6" V 3300 1700 50  0000 L CNN
F 1 "33p" V 3400 1700 50  0000 L CNN
F 2 "Capacitor_SMD:C_0603_1608Metric_Pad1.05x0.95mm_HandSolder" H 3350 1650 50  0001 C CNN
F 3 "~" H 3350 1650 50  0001 C CNN
F 4 "C1663" H 3350 1650 50  0001 C CNN "LCSC"
	1    3350 1650
	0    1    -1   0   
$EndComp
$Comp
L Device:C_Small C5
U 1 1 5FA54E1C
P 3350 1950
F 0 "C5" V 3300 2000 50  0000 L CNN
F 1 "33p" V 3400 2000 50  0000 L CNN
F 2 "Capacitor_SMD:C_0603_1608Metric_Pad1.05x0.95mm_HandSolder" H 3350 1950 50  0001 C CNN
F 3 "~" H 3350 1950 50  0001 C CNN
F 4 "C1663" H 3350 1950 50  0001 C CNN "LCSC"
	1    3350 1950
	0    1    -1   0   
$EndComp
Wire Wire Line
	3250 1650 3150 1650
Wire Wire Line
	3150 1650 3150 1950
Wire Wire Line
	3150 1950 3250 1950
$Comp
L power:GND #PWR04
U 1 1 5FA71995
P 3150 2050
F 0 "#PWR04" H 3150 1800 50  0001 C CNN
F 1 "GND" H 3155 1877 50  0000 C CNN
F 2 "" H 3150 2050 50  0001 C CNN
F 3 "" H 3150 2050 50  0001 C CNN
	1    3150 2050
	1    0    0    -1  
$EndComp
Wire Wire Line
	3150 2050 3150 1950
Connection ~ 3150 1950
$Comp
L power:VCC #PWR01
U 1 1 5FAAC38A
P 4950 950
F 0 "#PWR01" H 4950 800 50  0001 C CNN
F 1 "VCC" H 4967 1123 50  0000 C CNN
F 2 "" H 4950 950 50  0001 C CNN
F 3 "" H 4950 950 50  0001 C CNN
	1    4950 950 
	1    0    0    -1  
$EndComp
$Comp
L power:VCC #PWR013
U 1 1 5FAAC811
P 8950 5200
F 0 "#PWR013" H 8950 5050 50  0001 C CNN
F 1 "VCC" H 8967 5373 50  0000 C CNN
F 2 "" H 8950 5200 50  0001 C CNN
F 3 "" H 8950 5200 50  0001 C CNN
	1    8950 5200
	1    0    0    -1  
$EndComp
$Comp
L power:VCC #PWR014
U 1 1 5FAAD2F6
P 7100 5150
F 0 "#PWR014" H 7100 5000 50  0001 C CNN
F 1 "VCC" H 7117 5323 50  0000 C CNN
F 2 "" H 7100 5150 50  0001 C CNN
F 3 "" H 7100 5150 50  0001 C CNN
	1    7100 5150
	1    0    0    -1  
$EndComp
$Comp
L power:VCC #PWR017
U 1 1 5FAAD75E
P 2400 6050
F 0 "#PWR017" H 2400 5900 50  0001 C CNN
F 1 "VCC" H 2417 6223 50  0000 C CNN
F 2 "" H 2400 6050 50  0001 C CNN
F 3 "" H 2400 6050 50  0001 C CNN
	1    2400 6050
	1    0    0    -1  
$EndComp
$Comp
L LED:WS2812B D2
U 1 1 5FAEE8EB
P 10150 4350
F 0 "D2" H 10494 4396 50  0000 L CNN
F 1 "WS2812B" H 10494 4305 50  0000 L CNN
F 2 "LED_SMD:LED_WS2812B_PLCC4_5.0x5.0mm_P3.2mm" H 10200 4050 50  0001 L TNN
F 3 "https://cdn-shop.adafruit.com/datasheets/WS2812B.pdf" H 10250 3975 50  0001 L TNN
	1    10150 4350
	1    0    0    -1  
$EndComp
NoConn ~ 10450 4350
$Comp
L power:GND #PWR023
U 1 1 5FB00249
P 10150 4800
F 0 "#PWR023" H 10150 4550 50  0001 C CNN
F 1 "GND" H 10155 4627 50  0000 C CNN
F 2 "" H 10150 4800 50  0001 C CNN
F 3 "" H 10150 4800 50  0001 C CNN
	1    10150 4800
	1    0    0    -1  
$EndComp
Wire Wire Line
	10150 4800 10150 4650
$Comp
L Device:C_Small C10
U 1 1 5FB6CFC9
P 9200 5300
F 0 "C10" V 8971 5300 50  0000 C CNN
F 1 "100n" V 9062 5300 50  0000 C CNN
F 2 "Capacitor_SMD:C_0603_1608Metric_Pad1.05x0.95mm_HandSolder" H 9200 5300 50  0001 C CNN
F 3 "~" H 9200 5300 50  0001 C CNN
F 4 "C14663" H 9200 5300 50  0001 C CNN "LCSC"
	1    9200 5300
	0    1    1    0   
$EndComp
$Comp
L power:GND #PWR0102
U 1 1 5FB6DBA3
P 9450 5350
F 0 "#PWR0102" H 9450 5100 50  0001 C CNN
F 1 "GND" H 9455 5177 50  0000 C CNN
F 2 "" H 9450 5350 50  0001 C CNN
F 3 "" H 9450 5350 50  0001 C CNN
	1    9450 5350
	1    0    0    -1  
$EndComp
Wire Wire Line
	9300 5300 9450 5300
Wire Wire Line
	9450 5300 9450 5350
Wire Wire Line
	9100 5300 8950 5300
Connection ~ 8950 5300
Wire Wire Line
	8950 5300 8950 5350
Wire Wire Line
	2400 6050 2400 6150
Connection ~ 6200 1450
Wire Wire Line
	6200 1450 6600 1450
Wire Wire Line
	6200 1550 6200 1450
Wire Wire Line
	6600 1350 6600 1450
Wire Wire Line
	6600 1050 6600 1150
Wire Wire Line
	6200 1050 6600 1050
$Comp
L Device:C_Small C8
U 1 1 6024C6AE
P 6600 1250
F 0 "C8" H 6508 1204 50  0000 R CNN
F 1 "100n" H 6508 1295 50  0000 R CNN
F 2 "Capacitor_SMD:C_0603_1608Metric_Pad1.05x0.95mm_HandSolder" H 6600 1250 50  0001 C CNN
F 3 "~" H 6600 1250 50  0001 C CNN
F 4 "C14663" H 6600 1250 50  0001 C CNN "LCSC"
	1    6600 1250
	-1   0    0    1   
$EndComp
Wire Wire Line
	6200 1050 6200 1150
Wire Wire Line
	6200 1450 6200 1350
$Comp
L power:GND #PWR0101
U 1 1 5FB4C6B5
P 6200 1550
F 0 "#PWR0101" H 6200 1300 50  0001 C CNN
F 1 "GND" H 6205 1377 50  0000 C CNN
F 2 "" H 6200 1550 50  0001 C CNN
F 3 "" H 6200 1550 50  0001 C CNN
	1    6200 1550
	1    0    0    -1  
$EndComp
$Comp
L Device:C_Small C7
U 1 1 5FB43E53
P 6200 1250
F 0 "C7" H 6108 1204 50  0000 R CNN
F 1 "100n" H 6108 1295 50  0000 R CNN
F 2 "Capacitor_SMD:C_0603_1608Metric_Pad1.05x0.95mm_HandSolder" H 6200 1250 50  0001 C CNN
F 3 "~" H 6200 1250 50  0001 C CNN
F 4 "C14663" H 6200 1250 50  0001 C CNN "LCSC"
	1    6200 1250
	-1   0    0    1   
$EndComp
Connection ~ 6200 1050
Text Label 3000 2600 2    50   ~ 0
D-
Text Label 3000 2800 2    50   ~ 0
D+
Text Label 7850 1550 0    50   ~ 0
BTN1
Text Label 8850 1550 0    50   ~ 0
BTN2
Text Label 9850 1550 0    50   ~ 0
BTN3
Text Label 9850 2050 0    50   ~ 0
BTN6
Text Label 9850 2550 0    50   ~ 0
BTN9
Text Label 9850 3050 0    50   ~ 0
BTN12
Text Label 8850 3050 0    50   ~ 0
BTN11
Text Label 7850 3050 0    50   ~ 0
BTN10
Text Label 7850 2550 0    50   ~ 0
BTN7
Text Label 7850 2050 0    50   ~ 0
BTN4
Text Label 8850 2050 0    50   ~ 0
BTN5
Text Label 8850 2550 0    50   ~ 0
BTN8
Wire Wire Line
	8850 3050 9100 3050
Wire Wire Line
	8850 2550 9100 2550
Wire Wire Line
	9100 2050 8850 2050
Wire Wire Line
	8850 1550 9100 1550
Wire Wire Line
	9850 1550 10100 1550
Wire Wire Line
	10100 2050 9850 2050
Wire Wire Line
	10100 2550 9850 2550
Wire Wire Line
	10100 3050 9850 3050
Wire Wire Line
	8100 3050 7850 3050
Wire Wire Line
	7850 2550 8100 2550
Wire Wire Line
	7850 2050 8100 2050
Wire Wire Line
	7850 1550 8100 1550
Text Label 9400 4350 0    50   ~ 0
NEOPIXEL
Wire Wire Line
	9400 4350 9850 4350
Text Label 3850 1500 0    50   ~ 0
RESET
Wire Wire Line
	3850 1500 4200 1500
Wire Wire Line
	4000 6500 4350 6500
Text Label 4350 6500 2    50   ~ 0
MOSI
Wire Wire Line
	3500 6500 3150 6500
Text Label 3150 6500 0    50   ~ 0
SCK
Text Label 3150 6600 0    50   ~ 0
RESET
Wire Wire Line
	3150 6600 3500 6600
Wire Wire Line
	3500 6400 3150 6400
Text Label 3150 6400 0    50   ~ 0
MISO
$Comp
L power:GND #PWR0104
U 1 1 60682356
P 4150 6800
F 0 "#PWR0104" H 4150 6550 50  0001 C CNN
F 1 "GND" H 4155 6627 50  0000 C CNN
F 2 "" H 4150 6800 50  0001 C CNN
F 3 "" H 4150 6800 50  0001 C CNN
	1    4150 6800
	1    0    0    -1  
$EndComp
Wire Wire Line
	4150 6300 4150 6400
Text Label 6100 2200 2    50   ~ 0
NEOPIXEL
Wire Wire Line
	6100 2200 5650 2200
$Comp
L MCU_Microchip_ATmega:ATmega32U4-AU U1
U 1 1 5FB31554
P 5050 3000
F 0 "U1" H 4950 2000 50  0000 C CNN
F 1 "ATmega32U4-AU" H 4950 1900 50  0000 C CNN
F 2 "Package_QFP:TQFP-44_10x10mm_P0.8mm" H 5050 3000 50  0001 C CIN
F 3 "http://ww1.microchip.com/downloads/en/DeviceDoc/Atmel-7766-8-bit-AVR-ATmega16U4-32U4_Datasheet.pdf" H 5050 3000 50  0001 C CNN
	1    5050 3000
	1    0    0    -1  
$EndComp
Wire Wire Line
	2300 2800 2400 2800
Wire Wire Line
	2300 2600 2400 2600
$Comp
L Device:R R3
U 1 1 5FB4C0AB
P 2550 2600
F 0 "R3" V 2343 2600 50  0000 C CNN
F 1 "22R" V 2434 2600 50  0000 C CNN
F 2 "Resistor_SMD:R_0603_1608Metric_Pad1.05x0.95mm_HandSolder" V 2480 2600 50  0001 C CNN
F 3 "~" H 2550 2600 50  0001 C CNN
	1    2550 2600
	0    1    1    0   
$EndComp
Wire Wire Line
	2700 2600 3000 2600
$Comp
L Device:R R4
U 1 1 5FB4CECB
P 2550 2800
F 0 "R4" V 2650 2800 50  0000 C CNN
F 1 "22R" V 2750 2800 50  0000 C CNN
F 2 "Resistor_SMD:R_0603_1608Metric_Pad1.05x0.95mm_HandSolder" V 2480 2800 50  0001 C CNN
F 3 "~" H 2550 2800 50  0001 C CNN
	1    2550 2800
	0    1    1    0   
$EndComp
Wire Wire Line
	2700 2800 3000 2800
Wire Wire Line
	4350 1650 4350 1700
Wire Wire Line
	4350 1700 4450 1700
Wire Wire Line
	4450 1900 4350 1900
Wire Wire Line
	4350 1900 4350 1950
$Comp
L Device:R R2
U 1 1 5FBC7EDA
P 4200 1250
F 0 "R2" H 4130 1204 50  0000 R CNN
F 1 "10k" H 4130 1295 50  0000 R CNN
F 2 "Resistor_SMD:R_0603_1608Metric_Pad1.05x0.95mm_HandSolder" V 4130 1250 50  0001 C CNN
F 3 "~" H 4200 1250 50  0001 C CNN
	1    4200 1250
	-1   0    0    1   
$EndComp
Wire Wire Line
	4200 1400 4200 1500
Wire Wire Line
	4200 1500 4450 1500
Connection ~ 4200 1500
$Comp
L power:VCC #PWR02
U 1 1 5FBD8915
P 4200 950
F 0 "#PWR02" H 4200 800 50  0001 C CNN
F 1 "VCC" H 4217 1123 50  0000 C CNN
F 2 "" H 4200 950 50  0001 C CNN
F 3 "" H 4200 950 50  0001 C CNN
	1    4200 950 
	1    0    0    -1  
$EndComp
Wire Wire Line
	4200 950  4200 1100
Wire Wire Line
	4200 2200 4200 2300
Wire Wire Line
	4200 2300 4450 2300
$Comp
L Device:C C4
U 1 1 5FBF9244
P 4200 3050
F 0 "C4" H 4315 3096 50  0000 L CNN
F 1 "1u" H 4315 3005 50  0000 L CNN
F 2 "Capacitor_SMD:C_0603_1608Metric_Pad1.05x0.95mm_HandSolder" H 4238 2900 50  0001 C CNN
F 3 "~" H 4200 3050 50  0001 C CNN
	1    4200 3050
	1    0    0    -1  
$EndComp
Wire Wire Line
	4200 2900 4200 2800
$Comp
L power:GND #PWR06
U 1 1 5FC018CF
P 4200 3300
F 0 "#PWR06" H 4200 3050 50  0001 C CNN
F 1 "GND" H 4205 3127 50  0000 C CNN
F 2 "" H 4200 3300 50  0001 C CNN
F 3 "" H 4200 3300 50  0001 C CNN
	1    4200 3300
	1    0    0    -1  
$EndComp
Wire Wire Line
	4200 3300 4200 3200
Wire Wire Line
	4200 2800 4450 2800
Text Label 4150 2600 0    50   ~ 0
D-
Text Label 4150 2500 0    50   ~ 0
D+
Wire Wire Line
	4450 2600 4150 2600
Wire Wire Line
	4450 2500 4150 2500
Wire Wire Line
	4150 6600 4150 6800
$Comp
L Connector_Generic:Conn_02x03_Odd_Even J1
U 1 1 5FC33011
P 3700 6500
F 0 "J1" H 3750 6817 50  0000 C CNN
F 1 "Conn_02x03_Odd_Even" H 3750 6726 50  0000 C CNN
F 2 "Connector_PinHeader_2.54mm:PinHeader_2x03_P2.54mm_Vertical" H 3700 6500 50  0001 C CNN
F 3 "~" H 3700 6500 50  0001 C CNN
	1    3700 6500
	1    0    0    -1  
$EndComp
Wire Wire Line
	4150 6400 4000 6400
Wire Wire Line
	4150 6600 4000 6600
$Comp
L power:VCC #PWR03
U 1 1 5FCA0491
P 2450 1950
F 0 "#PWR03" H 2450 1800 50  0001 C CNN
F 1 "VCC" H 2467 2123 50  0000 C CNN
F 2 "" H 2450 1950 50  0001 C CNN
F 3 "" H 2450 1950 50  0001 C CNN
	1    2450 1950
	1    0    0    -1  
$EndComp
$Comp
L power:VCC #PWR07
U 1 1 5FCA676D
P 10150 3900
F 0 "#PWR07" H 10150 3750 50  0001 C CNN
F 1 "VCC" H 10167 4073 50  0000 C CNN
F 2 "" H 10150 3900 50  0001 C CNN
F 3 "" H 10150 3900 50  0001 C CNN
	1    10150 3900
	1    0    0    -1  
$EndComp
Wire Wire Line
	10150 3900 10150 4050
$Comp
L power:VCC #PWR015
U 1 1 5FCAC765
P 4150 6300
F 0 "#PWR015" H 4150 6150 50  0001 C CNN
F 1 "VCC" H 4167 6473 50  0000 C CNN
F 2 "" H 4150 6300 50  0001 C CNN
F 3 "" H 4150 6300 50  0001 C CNN
	1    4150 6300
	1    0    0    -1  
$EndComp
Wire Wire Line
	5150 1050 6200 1050
Connection ~ 5150 1050
Wire Wire Line
	5650 1700 6000 1700
Text Label 6000 1700 2    50   ~ 0
MOSI
Wire Wire Line
	5650 1800 6000 1800
Text Label 6000 1800 2    50   ~ 0
MISO
Wire Wire Line
	5650 1600 6000 1600
Text Label 6000 1600 2    50   ~ 0
SCK
Text Label 8450 5550 0    50   ~ 0
SDA
Text Label 8450 5750 0    50   ~ 0
SCL
Text Label 6550 5550 0    50   ~ 0
SDA
Text Label 6550 5650 0    50   ~ 0
SCL
Text Label 6000 2800 2    50   ~ 0
SDA
Text Label 6000 2700 2    50   ~ 0
SCL
Wire Wire Line
	5650 2700 6000 2700
Wire Wire Line
	5650 2800 6000 2800
$Comp
L Device:CP C1
U 1 1 5FD01982
P 2050 6500
F 0 "C1" H 2168 6546 50  0000 L CNN
F 1 "CP" H 2168 6455 50  0000 L CNN
F 2 "Capacitor_Tantalum_SMD:CP_EIA-3216-18_Kemet-A_Pad1.58x1.35mm_HandSolder" H 2088 6350 50  0001 C CNN
F 3 "~" H 2050 6500 50  0001 C CNN
	1    2050 6500
	1    0    0    -1  
$EndComp
$Comp
L Device:C C2
U 1 1 5FD027E5
P 1650 6500
F 0 "C2" H 1765 6546 50  0000 L CNN
F 1 "1u" H 1765 6455 50  0000 L CNN
F 2 "Capacitor_SMD:C_0603_1608Metric_Pad1.05x0.95mm_HandSolder" H 1688 6350 50  0001 C CNN
F 3 "~" H 1650 6500 50  0001 C CNN
	1    1650 6500
	1    0    0    -1  
$EndComp
$Comp
L Device:C C3
U 1 1 5FD02C71
P 1250 6500
F 0 "C3" H 1365 6546 50  0000 L CNN
F 1 "100n" H 1365 6455 50  0000 L CNN
F 2 "Capacitor_SMD:C_0603_1608Metric_Pad1.05x0.95mm_HandSolder" H 1288 6350 50  0001 C CNN
F 3 "~" H 1250 6500 50  0001 C CNN
	1    1250 6500
	1    0    0    -1  
$EndComp
Wire Wire Line
	1250 6350 1250 6150
Wire Wire Line
	1250 6150 1650 6150
Connection ~ 2400 6150
Wire Wire Line
	2400 6150 2400 6250
Wire Wire Line
	2050 6350 2050 6150
Connection ~ 2050 6150
Wire Wire Line
	2050 6150 2400 6150
Wire Wire Line
	1650 6350 1650 6150
Connection ~ 1650 6150
Wire Wire Line
	1650 6150 2050 6150
Wire Wire Line
	2050 6650 2050 6850
Wire Wire Line
	2050 6850 2400 6850
Connection ~ 2400 6850
Wire Wire Line
	2400 6850 2400 6800
Wire Wire Line
	2050 6850 1650 6850
Wire Wire Line
	1650 6850 1650 6650
Connection ~ 2050 6850
Wire Wire Line
	1650 6850 1250 6850
Wire Wire Line
	1250 6850 1250 6650
Connection ~ 1650 6850
Wire Wire Line
	3450 1950 3800 1950
Wire Wire Line
	3450 1650 3800 1650
Connection ~ 3800 1650
Wire Wire Line
	3800 1650 4350 1650
Connection ~ 3800 1950
Wire Wire Line
	3800 1950 4350 1950
$Comp
L power:VCC #PWR0103
U 1 1 5FEA37C3
P 4200 2200
F 0 "#PWR0103" H 4200 2050 50  0001 C CNN
F 1 "VCC" H 4217 2373 50  0000 C CNN
F 2 "" H 4200 2200 50  0001 C CNN
F 3 "" H 4200 2200 50  0001 C CNN
	1    4200 2200
	1    0    0    -1  
$EndComp
$Comp
L Memory_EEPROM:25LCxxx U3
U 1 1 60854871
P 5700 6500
F 0 "U3" H 5900 6900 50  0000 C CNN
F 1 "25CSM04" H 5900 6800 50  0000 C CNN
F 2 "Package_SO:SOIC-8_3.9x4.9mm_P1.27mm" H 5700 6500 50  0001 C CNN
F 3 "http://ww1.microchip.com/downloads/en/DeviceDoc/21832H.pdf" H 5700 6500 50  0001 C CNN
	1    5700 6500
	1    0    0    -1  
$EndComp
Wire Wire Line
	6100 6400 6450 6400
Text Label 6450 6400 2    50   ~ 0
SCK
Wire Wire Line
	6100 6600 6450 6600
Text Label 6450 6600 2    50   ~ 0
MISO
Wire Wire Line
	6100 6500 6450 6500
Text Label 6450 6500 2    50   ~ 0
MOSI
$Comp
L power:VCC #PWR05
U 1 1 60874B56
P 5700 5750
F 0 "#PWR05" H 5700 5600 50  0001 C CNN
F 1 "VCC" H 5717 5923 50  0000 C CNN
F 2 "" H 5700 5750 50  0001 C CNN
F 3 "" H 5700 5750 50  0001 C CNN
	1    5700 5750
	1    0    0    -1  
$EndComp
$Comp
L power:GND #PWR016
U 1 1 6087BF4D
P 5700 6950
F 0 "#PWR016" H 5700 6700 50  0001 C CNN
F 1 "GND" H 5705 6777 50  0000 C CNN
F 2 "" H 5700 6950 50  0001 C CNN
F 3 "" H 5700 6950 50  0001 C CNN
	1    5700 6950
	1    0    0    -1  
$EndComp
Wire Wire Line
	5700 6950 5700 6800
Wire Wire Line
	5700 5750 5700 5850
$Comp
L Device:R_Small R6
U 1 1 6088AD88
P 5100 6100
F 0 "R6" H 5159 6146 50  0000 L CNN
F 1 "10k" H 5159 6055 50  0000 L CNN
F 2 "Resistor_SMD:R_0603_1608Metric_Pad1.05x0.95mm_HandSolder" H 5100 6100 50  0001 C CNN
F 3 "~" H 5100 6100 50  0001 C CNN
F 4 "C11702" H 5100 6100 50  0001 C CNN "LCSC"
	1    5100 6100
	1    0    0    -1  
$EndComp
$Comp
L Device:R_Small R5
U 1 1 6088BD3D
P 4850 6100
F 0 "R5" H 4909 6146 50  0000 L CNN
F 1 "10k" H 4909 6055 50  0000 L CNN
F 2 "Resistor_SMD:R_0603_1608Metric_Pad1.05x0.95mm_HandSolder" H 4850 6100 50  0001 C CNN
F 3 "~" H 4850 6100 50  0001 C CNN
F 4 "C11702" H 4850 6100 50  0001 C CNN "LCSC"
	1    4850 6100
	1    0    0    -1  
$EndComp
Wire Wire Line
	5300 6400 5100 6400
Wire Wire Line
	5100 6400 5100 6200
Wire Wire Line
	5300 6500 4850 6500
Wire Wire Line
	4850 6500 4850 6200
Wire Wire Line
	5100 6000 5100 5850
Wire Wire Line
	5100 5850 5700 5850
Connection ~ 5700 5850
Wire Wire Line
	5700 5850 5700 6200
Wire Wire Line
	4850 6000 4850 5850
Wire Wire Line
	4850 5850 5100 5850
Connection ~ 5100 5850
Text Label 4850 6600 0    50   ~ 0
FLASH_CS
Wire Wire Line
	4850 6600 5300 6600
Text Label 6050 1500 2    50   ~ 0
FLASH_CS
Wire Wire Line
	6050 1500 5650 1500
$Comp
L Device:C_Small C9
U 1 1 608E6861
P 5950 5850
F 0 "C9" V 5721 5850 50  0000 C CNN
F 1 "100n" V 5812 5850 50  0000 C CNN
F 2 "Capacitor_SMD:C_0603_1608Metric_Pad1.05x0.95mm_HandSolder" H 5950 5850 50  0001 C CNN
F 3 "~" H 5950 5850 50  0001 C CNN
F 4 "C14663" H 5950 5850 50  0001 C CNN "LCSC"
	1    5950 5850
	0    1    1    0   
$EndComp
$Comp
L power:GND #PWR020
U 1 1 608E6867
P 6200 5900
F 0 "#PWR020" H 6200 5650 50  0001 C CNN
F 1 "GND" H 6205 5727 50  0000 C CNN
F 2 "" H 6200 5900 50  0001 C CNN
F 3 "" H 6200 5900 50  0001 C CNN
	1    6200 5900
	1    0    0    -1  
$EndComp
Wire Wire Line
	6050 5850 6200 5850
Wire Wire Line
	6200 5850 6200 5900
Wire Wire Line
	5850 5850 5700 5850
Text Label 6000 3200 2    50   ~ 0
BTN6
Wire Wire Line
	6000 3200 5650 3200
Text Label 6000 2900 2    50   ~ 0
BTN3
Wire Wire Line
	6000 2900 5650 2900
Text Label 6000 3000 2    50   ~ 0
BTN9
Wire Wire Line
	6000 3000 5650 3000
Text Label 6000 3100 2    50   ~ 0
BTN12
Wire Wire Line
	6000 3100 5650 3100
Wire Wire Line
	6000 3300 5650 3300
Text Label 6000 3300 2    50   ~ 0
BTN11
Wire Wire Line
	6000 3400 5650 3400
Text Label 6000 3400 2    50   ~ 0
BTN2
Wire Wire Line
	6000 1900 5650 1900
Text Label 6000 1900 2    50   ~ 0
BTN5
Wire Wire Line
	6000 2000 5650 2000
Text Label 6000 2000 2    50   ~ 0
BTN8
Wire Wire Line
	6000 2100 5650 2100
Text Label 6000 2100 2    50   ~ 0
BTN10
Wire Wire Line
	6000 2400 5650 2400
Text Label 6000 2400 2    50   ~ 0
BTN7
Text Label 6000 3600 2    50   ~ 0
BTN1
Wire Wire Line
	6000 2500 5650 2500
Text Label 6000 2500 2    50   ~ 0
BTN4
$Comp
L Graphic:Logo_Open_Hardware_Large #LOGO1
U 1 1 60AF3BE3
P 10600 6000
F 0 "#LOGO1" H 10600 6500 50  0001 C CNN
F 1 "Logo_Open_Hardware_Large" H 10600 5600 50  0001 C CNN
F 2 "" H 10600 6000 50  0001 C CNN
F 3 "~" H 10600 6000 50  0001 C CNN
	1    10600 6000
	1    0    0    -1  
$EndComp
$Comp
L Device:Crystal_GND24 Y1
U 1 1 608CFC64
P 3800 1800
F 0 "Y1" V 3754 2044 50  0000 L CNN
F 1 "16MHz" V 3845 2044 50  0000 L CNN
F 2 "Crystal:Crystal_SMD_5032-4Pin_5.0x3.2mm" H 3800 1800 50  0001 C CNN
F 3 "~" H 3800 1800 50  0001 C CNN
	1    3800 1800
	0    1    1    0   
$EndComp
Wire Wire Line
	3600 1800 3600 2100
Wire Wire Line
	3600 2100 3800 2100
Wire Wire Line
	4000 2100 4000 1800
$Comp
L power:GND #PWR0105
U 1 1 608DC11D
P 3800 2200
F 0 "#PWR0105" H 3800 1950 50  0001 C CNN
F 1 "GND" H 3805 2027 50  0000 C CNN
F 2 "" H 3800 2200 50  0001 C CNN
F 3 "" H 3800 2200 50  0001 C CNN
	1    3800 2200
	1    0    0    -1  
$EndComp
Wire Wire Line
	3800 2200 3800 2100
Connection ~ 3800 2100
Wire Wire Line
	3800 2100 4000 2100
Text Label 7650 4600 2    50   ~ 0
SDA
Text Label 7650 4300 2    50   ~ 0
SCL
$Comp
L power:VCC #PWR022
U 1 1 60A0317F
P 6950 4100
F 0 "#PWR022" H 6950 3950 50  0001 C CNN
F 1 "VCC" H 6967 4273 50  0000 C CNN
F 2 "" H 6950 4100 50  0001 C CNN
F 3 "" H 6950 4100 50  0001 C CNN
	1    6950 4100
	1    0    0    -1  
$EndComp
$Comp
L Device:R_Small R7
U 1 1 60A59F2D
P 7250 4300
F 0 "R7" V 7054 4300 50  0000 C CNN
F 1 "10k" V 7145 4300 50  0000 C CNN
F 2 "Resistor_SMD:R_0603_1608Metric_Pad1.05x0.95mm_HandSolder" H 7250 4300 50  0001 C CNN
F 3 "~" H 7250 4300 50  0001 C CNN
	1    7250 4300
	0    1    1    0   
$EndComp
$Comp
L Device:R_Small R8
U 1 1 60A5AEEB
P 7250 4600
F 0 "R8" V 7054 4600 50  0000 C CNN
F 1 "10k" V 7145 4600 50  0000 C CNN
F 2 "Resistor_SMD:R_0603_1608Metric_Pad1.05x0.95mm_HandSolder" H 7250 4600 50  0001 C CNN
F 3 "~" H 7250 4600 50  0001 C CNN
	1    7250 4600
	0    1    1    0   
$EndComp
Wire Wire Line
	7350 4600 7650 4600
Wire Wire Line
	7350 4300 7650 4300
Wire Wire Line
	7150 4600 6950 4600
Wire Wire Line
	6950 4100 6950 4300
Wire Wire Line
	7150 4300 6950 4300
Connection ~ 6950 4300
Wire Wire Line
	6950 4300 6950 4600
Wire Wire Line
	5650 3600 6000 3600
$EndSCHEMATC
