EESchema Schematic File Version 4
EELAYER 30 0
EELAYER END
$Descr A3 16535 11693
encoding utf-8
Sheet 1 1
Title "SecretKey"
Date "2021-06-25"
Rev "1.2"
Comp ""
Comment1 "licensed under CERN-OHL-W v2 or later (https://cern.ch/cern-ohl)"
Comment2 "This project is Open Source Hardware"
Comment3 "Copyright (c) PurkkaKoodari 2020-2021"
Comment4 ""
$EndDescr
Wire Wire Line
	5750 9650 5950 9650
Wire Wire Line
	5950 9750 5750 9750
Wire Wire Line
	6200 8900 6200 9000
$Comp
L power:GND #PWR018
U 1 1 5F9365F6
P 6200 10300
F 0 "#PWR018" H 6200 10050 50  0001 C CNN
F 1 "GND" H 6205 10127 50  0000 C CNN
F 2 "" H 6200 10300 50  0001 C CNN
F 3 "" H 6200 10300 50  0001 C CNN
	1    6200 10300
	1    0    0    -1  
$EndComp
Wire Wire Line
	6200 10300 6200 10250
$Comp
L power:GND #PWR011
U 1 1 5F92B8A4
P 1800 7600
F 0 "#PWR011" H 1800 7350 50  0001 C CNN
F 1 "GND" H 1805 7427 50  0000 C CNN
F 2 "" H 1800 7600 50  0001 C CNN
F 3 "" H 1800 7600 50  0001 C CNN
	1    1800 7600
	1    0    0    -1  
$EndComp
$Comp
L Connector:USB_C_Plug P1
U 1 1 5F9394CA
P 1800 5850
F 0 "P1" H 1907 7117 50  0000 C CNN
F 1 "USB_C_Plug" H 1907 7026 50  0000 C CNN
F 2 "Connector_USB:USB_C_Receptacle_HRO_TYPE-C-31-M-12" H 1950 5850 50  0001 C CNN
F 3 "https://www.usb.org/sites/default/files/documents/usb_type-c.zip" H 1950 5850 50  0001 C CNN
	1    1800 5850
	1    0    0    -1  
$EndComp
Wire Wire Line
	1800 7600 1800 7550
Wire Wire Line
	1800 7550 1500 7550
Wire Wire Line
	1500 7550 1500 7450
Connection ~ 1800 7550
Wire Wire Line
	1800 7550 1800 7450
$Comp
L Switch:SW_Push SW2
U 1 1 5F9408F6
P 13550 1400
F 0 "SW2" H 13550 1685 50  0000 C CNN
F 1 "SW_Push" H 13550 1594 50  0000 C CNN
F 2 "Button_Switch_THT:SW_PUSH_6mm" H 13550 1600 50  0001 C CNN
F 3 "~" H 13550 1600 50  0001 C CNN
	1    13550 1400
	1    0    0    -1  
$EndComp
Wire Wire Line
	12300 7900 12700 7900
$Comp
L Switch:SW_Push SW3
U 1 1 5F94CDBE
P 14550 1400
F 0 "SW3" H 14550 1685 50  0000 C CNN
F 1 "SW_Push" H 14550 1594 50  0000 C CNN
F 2 "Button_Switch_THT:SW_PUSH_6mm" H 14550 1600 50  0001 C CNN
F 3 "~" H 14550 1600 50  0001 C CNN
	1    14550 1400
	1    0    0    -1  
$EndComp
$Comp
L Switch:SW_Push SW5
U 1 1 5F95127A
P 13550 1900
F 0 "SW5" H 13550 2185 50  0000 C CNN
F 1 "SW_Push" H 13550 2094 50  0000 C CNN
F 2 "Button_Switch_THT:SW_PUSH_6mm" H 13550 2100 50  0001 C CNN
F 3 "~" H 13550 2100 50  0001 C CNN
	1    13550 1900
	1    0    0    -1  
$EndComp
$Comp
L Switch:SW_Push SW6
U 1 1 5F951280
P 14550 1900
F 0 "SW6" H 14550 2185 50  0000 C CNN
F 1 "SW_Push" H 14550 2094 50  0000 C CNN
F 2 "Button_Switch_THT:SW_PUSH_6mm" H 14550 2100 50  0001 C CNN
F 3 "~" H 14550 2100 50  0001 C CNN
	1    14550 1900
	1    0    0    -1  
$EndComp
$Comp
L Switch:SW_Push SW1
U 1 1 5F9570FC
P 12550 1400
F 0 "SW1" H 12550 1685 50  0000 C CNN
F 1 "SW_Push" H 12550 1594 50  0000 C CNN
F 2 "Button_Switch_THT:SW_PUSH_6mm" H 12550 1600 50  0001 C CNN
F 3 "~" H 12550 1600 50  0001 C CNN
	1    12550 1400
	1    0    0    -1  
$EndComp
$Comp
L Switch:SW_Push SW4
U 1 1 5F957108
P 12550 1900
F 0 "SW4" H 12550 2185 50  0000 C CNN
F 1 "SW_Push" H 12550 2094 50  0000 C CNN
F 2 "Button_Switch_THT:SW_PUSH_6mm" H 12550 2100 50  0001 C CNN
F 3 "~" H 12550 2100 50  0001 C CNN
	1    12550 1900
	1    0    0    -1  
$EndComp
$Comp
L Switch:SW_Push SW8
U 1 1 5F95DE34
P 13550 2400
F 0 "SW8" H 13550 2685 50  0000 C CNN
F 1 "SW_Push" H 13550 2594 50  0000 C CNN
F 2 "Button_Switch_THT:SW_PUSH_6mm" H 13550 2600 50  0001 C CNN
F 3 "~" H 13550 2600 50  0001 C CNN
	1    13550 2400
	1    0    0    -1  
$EndComp
$Comp
L Switch:SW_Push SW9
U 1 1 5F95DE3A
P 14550 2400
F 0 "SW9" H 14550 2685 50  0000 C CNN
F 1 "SW_Push" H 14550 2594 50  0000 C CNN
F 2 "Button_Switch_THT:SW_PUSH_6mm" H 14550 2600 50  0001 C CNN
F 3 "~" H 14550 2600 50  0001 C CNN
	1    14550 2400
	1    0    0    -1  
$EndComp
$Comp
L Switch:SW_Push SW11
U 1 1 5F95DE40
P 13550 2900
F 0 "SW11" H 13550 3185 50  0000 C CNN
F 1 "SW_Push" H 13550 3094 50  0000 C CNN
F 2 "Button_Switch_THT:SW_PUSH_6mm" H 13550 3100 50  0001 C CNN
F 3 "~" H 13550 3100 50  0001 C CNN
	1    13550 2900
	1    0    0    -1  
$EndComp
$Comp
L Switch:SW_Push SW12
U 1 1 5F95DE46
P 14550 2900
F 0 "SW12" H 14550 3185 50  0000 C CNN
F 1 "SW_Push" H 14550 3094 50  0000 C CNN
F 2 "Button_Switch_THT:SW_PUSH_6mm" H 14550 3100 50  0001 C CNN
F 3 "~" H 14550 3100 50  0001 C CNN
	1    14550 2900
	1    0    0    -1  
$EndComp
$Comp
L Switch:SW_Push SW7
U 1 1 5F95DE4C
P 12550 2400
F 0 "SW7" H 12550 2685 50  0000 C CNN
F 1 "SW_Push" H 12550 2594 50  0000 C CNN
F 2 "Button_Switch_THT:SW_PUSH_6mm" H 12550 2600 50  0001 C CNN
F 3 "~" H 12550 2600 50  0001 C CNN
	1    12550 2400
	1    0    0    -1  
$EndComp
$Comp
L Switch:SW_Push SW10
U 1 1 5F95DE52
P 12550 2900
F 0 "SW10" H 12550 3185 50  0000 C CNN
F 1 "SW_Push" H 12550 3094 50  0000 C CNN
F 2 "Button_Switch_THT:SW_PUSH_6mm" H 12550 3100 50  0001 C CNN
F 3 "~" H 12550 3100 50  0001 C CNN
	1    12550 2900
	1    0    0    -1  
$EndComp
NoConn ~ 2400 5850
NoConn ~ 2400 5950
NoConn ~ 2400 6150
NoConn ~ 2400 6250
NoConn ~ 2400 6450
NoConn ~ 2400 6550
NoConn ~ 2400 6750
NoConn ~ 2400 6850
NoConn ~ 2400 7050
NoConn ~ 2400 7150
$Comp
L power:GND #PWR08
U 1 1 5F969259
P 12900 3200
F 0 "#PWR08" H 12900 2950 50  0001 C CNN
F 1 "GND" H 12905 3027 50  0000 C CNN
F 2 "" H 12900 3200 50  0001 C CNN
F 3 "" H 12900 3200 50  0001 C CNN
	1    12900 3200
	1    0    0    -1  
$EndComp
Wire Wire Line
	12750 2900 12900 2900
Wire Wire Line
	12900 2400 12750 2400
Wire Wire Line
	12750 1900 12900 1900
Wire Wire Line
	12750 1400 12900 1400
$Comp
L power:GND #PWR09
U 1 1 5F96D142
P 13900 3200
F 0 "#PWR09" H 13900 2950 50  0001 C CNN
F 1 "GND" H 13905 3027 50  0000 C CNN
F 2 "" H 13900 3200 50  0001 C CNN
F 3 "" H 13900 3200 50  0001 C CNN
	1    13900 3200
	1    0    0    -1  
$EndComp
Wire Wire Line
	13750 2900 13900 2900
Wire Wire Line
	13900 2400 13750 2400
Wire Wire Line
	13750 1900 13900 1900
Wire Wire Line
	13750 1400 13900 1400
$Comp
L power:GND #PWR010
U 1 1 5F96E3BA
P 14900 3200
F 0 "#PWR010" H 14900 2950 50  0001 C CNN
F 1 "GND" H 14905 3027 50  0000 C CNN
F 2 "" H 14900 3200 50  0001 C CNN
F 3 "" H 14900 3200 50  0001 C CNN
	1    14900 3200
	1    0    0    -1  
$EndComp
Wire Wire Line
	14750 2900 14900 2900
Wire Wire Line
	14900 2400 14750 2400
Wire Wire Line
	14750 1900 14900 1900
Wire Wire Line
	14750 1400 14900 1400
Wire Wire Line
	12900 1400 12900 1900
Wire Wire Line
	13900 1400 13900 1900
Wire Wire Line
	14900 1400 14900 1900
Connection ~ 14900 1900
Wire Wire Line
	14900 1900 14900 2400
Connection ~ 14900 2400
Wire Wire Line
	14900 2400 14900 2900
Connection ~ 14900 2900
Wire Wire Line
	14900 2900 14900 3200
Connection ~ 13900 1900
Wire Wire Line
	13900 1900 13900 2400
Connection ~ 13900 2400
Wire Wire Line
	13900 2400 13900 2900
Connection ~ 13900 2900
Wire Wire Line
	13900 2900 13900 3200
Connection ~ 12900 1900
Wire Wire Line
	12900 1900 12900 2400
Connection ~ 12900 2400
Wire Wire Line
	12900 2400 12900 2900
Connection ~ 12900 2900
Wire Wire Line
	12900 2900 12900 3200
Wire Wire Line
	2550 4700 2550 4850
Wire Wire Line
	2550 4850 2400 4850
NoConn ~ 2400 5150
NoConn ~ 2400 5050
$Comp
L Device:R_Small R1
U 1 1 5F9B5881
P 1300 9750
F 0 "R1" H 1359 9796 50  0000 L CNN
F 1 "1k" H 1359 9705 50  0000 L CNN
F 2 "Resistor_SMD:R_0603_1608Metric_Pad1.05x0.95mm_HandSolder" H 1300 9750 50  0001 C CNN
F 3 "~" H 1300 9750 50  0001 C CNN
F 4 "C11702" H 1300 9750 50  0001 C CNN "LCSC"
	1    1300 9750
	1    0    0    -1  
$EndComp
$Comp
L Device:LED_Small D4
U 1 1 5F9B9525
P 1300 9400
F 0 "D4" V 1346 9332 50  0000 R CNN
F 1 "Red" V 1255 9332 50  0000 R CNN
F 2 "LED_SMD:LED_0603_1608Metric_Pad1.05x0.95mm_HandSolder" V 1300 9400 50  0001 C CNN
F 3 "~" V 1300 9400 50  0001 C CNN
	1    1300 9400
	0    -1   -1   0   
$EndComp
Wire Wire Line
	1300 9650 1300 9500
$Comp
L power:GND #PWR021
U 1 1 5F9BD6D0
P 1300 10000
F 0 "#PWR021" H 1300 9750 50  0001 C CNN
F 1 "GND" H 1305 9827 50  0000 C CNN
F 2 "" H 1300 10000 50  0001 C CNN
F 3 "" H 1300 10000 50  0001 C CNN
	1    1300 10000
	1    0    0    -1  
$EndComp
Wire Wire Line
	1300 10000 1300 9900
$Comp
L LED:WS2812B D2
U 1 1 5FAEE8EB
P 13700 5100
F 0 "D2" H 14044 5146 50  0000 L CNN
F 1 "WS2812B" H 14044 5055 50  0000 L CNN
F 2 "LED_SMD:LED_WS2812B_PLCC4_5.0x5.0mm_P3.2mm" H 13750 4800 50  0001 L TNN
F 3 "https://cdn-shop.adafruit.com/datasheets/WS2812B.pdf" H 13800 4725 50  0001 L TNN
	1    13700 5100
	1    0    0    -1  
$EndComp
NoConn ~ 14000 5100
$Comp
L power:GND #PWR023
U 1 1 5FB00249
P 13700 5550
F 0 "#PWR023" H 13700 5300 50  0001 C CNN
F 1 "GND" H 13705 5377 50  0000 C CNN
F 2 "" H 13700 5550 50  0001 C CNN
F 3 "" H 13700 5550 50  0001 C CNN
	1    13700 5550
	1    0    0    -1  
$EndComp
Wire Wire Line
	13700 5550 13700 5400
$Comp
L Device:C_Small C8
U 1 1 5FB6CFC9
P 5700 9000
F 0 "C8" V 5471 9000 50  0000 C CNN
F 1 "100n" V 5562 9000 50  0000 C CNN
F 2 "Capacitor_SMD:C_0603_1608Metric_Pad1.05x0.95mm_HandSolder" H 5700 9000 50  0001 C CNN
F 3 "~" H 5700 9000 50  0001 C CNN
F 4 "C14663" H 5700 9000 50  0001 C CNN "LCSC"
	1    5700 9000
	0    1    1    0   
$EndComp
$Comp
L power:GND #PWR0102
U 1 1 5FB6DBA3
P 5450 9100
F 0 "#PWR0102" H 5450 8850 50  0001 C CNN
F 1 "GND" H 5455 8927 50  0000 C CNN
F 2 "" H 5450 9100 50  0001 C CNN
F 3 "" H 5450 9100 50  0001 C CNN
	1    5450 9100
	1    0    0    -1  
$EndComp
Connection ~ 6200 9000
Wire Wire Line
	1300 9100 1300 9200
Text Label 2700 5350 2    50   ~ 0
D-
Text Label 2700 5550 2    50   ~ 0
D+
Text Label 12100 1400 0    50   ~ 0
BTN1
Text Label 13100 1400 0    50   ~ 0
BTN2
Text Label 14100 1400 0    50   ~ 0
BTN3
Text Label 14100 1900 0    50   ~ 0
BTN6
Text Label 14100 2400 0    50   ~ 0
BTN9
Text Label 14100 2900 0    50   ~ 0
BTN12
Text Label 13100 2900 0    50   ~ 0
BTN11
Text Label 12100 2900 0    50   ~ 0
BTN10
Text Label 12100 2400 0    50   ~ 0
BTN7
Text Label 12100 1900 0    50   ~ 0
BTN4
Text Label 13100 1900 0    50   ~ 0
BTN5
Text Label 13100 2400 0    50   ~ 0
BTN8
Wire Wire Line
	13100 2900 13350 2900
Wire Wire Line
	13100 2400 13350 2400
Wire Wire Line
	13350 1900 13100 1900
Wire Wire Line
	13100 1400 13350 1400
Wire Wire Line
	14100 1400 14350 1400
Wire Wire Line
	14350 1900 14100 1900
Wire Wire Line
	14350 2400 14100 2400
Wire Wire Line
	14350 2900 14100 2900
Wire Wire Line
	12350 2900 12100 2900
Wire Wire Line
	12100 2400 12350 2400
Wire Wire Line
	12100 1900 12350 1900
Wire Wire Line
	12100 1400 12350 1400
Text Label 12950 5100 0    50   ~ 0
NEOPIXEL
Wire Wire Line
	12950 5100 13400 5100
Wire Wire Line
	2400 5550 2700 5550
Wire Wire Line
	2400 5350 2700 5350
Text Label 5750 9650 0    50   ~ 0
SDA
Text Label 5750 9750 0    50   ~ 0
SCL
Text Label 12300 7900 0    50   ~ 0
DISP_RST
$Comp
L Device:CP C1
U 1 1 5FD01982
P 1650 9550
F 0 "C1" H 1768 9596 50  0000 L CNN
F 1 "10u" H 1768 9505 50  0000 L CNN
F 2 "Capacitor_Tantalum_SMD:CP_EIA-3216-18_Kemet-A_Pad1.58x1.35mm_HandSolder" H 1688 9400 50  0001 C CNN
F 3 "~" H 1650 9550 50  0001 C CNN
	1    1650 9550
	1    0    0    -1  
$EndComp
$Comp
L Device:C C3
U 1 1 5FD027E5
P 3000 9550
F 0 "C3" H 3115 9596 50  0000 L CNN
F 1 "1u" H 3115 9505 50  0000 L CNN
F 2 "Capacitor_SMD:C_0603_1608Metric_Pad1.05x0.95mm_HandSolder" H 3038 9400 50  0001 C CNN
F 3 "~" H 3000 9550 50  0001 C CNN
	1    3000 9550
	1    0    0    -1  
$EndComp
$Comp
L Device:C C4
U 1 1 5FD02C71
P 3400 9550
F 0 "C4" H 3515 9596 50  0000 L CNN
F 1 "100n" H 3515 9505 50  0000 L CNN
F 2 "Capacitor_SMD:C_0603_1608Metric_Pad1.05x0.95mm_HandSolder" H 3438 9400 50  0001 C CNN
F 3 "~" H 3400 9550 50  0001 C CNN
	1    3400 9550
	1    0    0    -1  
$EndComp
Wire Wire Line
	3000 9400 3000 9200
Wire Wire Line
	1300 9200 1300 9300
Wire Wire Line
	1650 9400 1650 9200
Wire Wire Line
	3400 9400 3400 9200
Wire Wire Line
	3400 9700 3400 9900
Wire Wire Line
	1300 9900 1300 9850
Wire Wire Line
	3000 9900 3000 9700
Wire Wire Line
	1650 9900 1650 9700
Wire Wire Line
	9100 9850 8750 9850
Text Label 8750 9850 0    50   ~ 0
SCK
Wire Wire Line
	10100 9650 10450 9650
Text Label 10450 9650 2    50   ~ 0
MISO
Wire Wire Line
	10100 9550 10450 9550
Text Label 10450 9550 2    50   ~ 0
MOSI
$Comp
L power:GND #PWR016
U 1 1 6087BF4D
P 9600 10300
F 0 "#PWR016" H 9600 10050 50  0001 C CNN
F 1 "GND" H 9605 10127 50  0000 C CNN
F 2 "" H 9600 10300 50  0001 C CNN
F 3 "" H 9600 10300 50  0001 C CNN
	1    9600 10300
	1    0    0    -1  
$EndComp
Wire Wire Line
	9600 10300 9600 10150
Text Label 8650 9650 0    50   ~ 0
FLASH_CS
Wire Wire Line
	8650 9650 9100 9650
$Comp
L Device:C_Small C9
U 1 1 608E6861
P 10150 9150
F 0 "C9" V 9921 9150 50  0000 C CNN
F 1 "100n" V 10012 9150 50  0000 C CNN
F 2 "Capacitor_SMD:C_0603_1608Metric_Pad1.05x0.95mm_HandSolder" H 10150 9150 50  0001 C CNN
F 3 "~" H 10150 9150 50  0001 C CNN
F 4 "C14663" H 10150 9150 50  0001 C CNN "LCSC"
	1    10150 9150
	0    1    1    0   
$EndComp
$Comp
L power:GND #PWR020
U 1 1 608E6867
P 10400 9200
F 0 "#PWR020" H 10400 8950 50  0001 C CNN
F 1 "GND" H 10405 9027 50  0000 C CNN
F 2 "" H 10400 9200 50  0001 C CNN
F 3 "" H 10400 9200 50  0001 C CNN
	1    10400 9200
	1    0    0    -1  
$EndComp
Wire Wire Line
	10250 9150 10400 9150
Wire Wire Line
	10400 9150 10400 9200
Text Label 9850 6050 2    50   ~ 0
SDA
Text Label 9850 5750 2    50   ~ 0
SCL
$Comp
L Device:R_Small R2
U 1 1 60A59F2D
P 9450 5750
F 0 "R2" V 9254 5750 50  0000 C CNN
F 1 "10k" V 9345 5750 50  0000 C CNN
F 2 "Resistor_SMD:R_0603_1608Metric_Pad1.05x0.95mm_HandSolder" H 9450 5750 50  0001 C CNN
F 3 "~" H 9450 5750 50  0001 C CNN
	1    9450 5750
	0    1    1    0   
$EndComp
$Comp
L Device:R_Small R3
U 1 1 60A5AEEB
P 9450 6050
F 0 "R3" V 9254 6050 50  0000 C CNN
F 1 "10k" V 9345 6050 50  0000 C CNN
F 2 "Resistor_SMD:R_0603_1608Metric_Pad1.05x0.95mm_HandSolder" H 9450 6050 50  0001 C CNN
F 3 "~" H 9450 6050 50  0001 C CNN
	1    9450 6050
	0    1    1    0   
$EndComp
Wire Wire Line
	9550 6050 9850 6050
Wire Wire Line
	9550 5750 9850 5750
Wire Wire Line
	9350 6050 9150 6050
Wire Wire Line
	9150 5550 9150 5750
Wire Wire Line
	9350 5750 9150 5750
Connection ~ 9150 5750
Wire Wire Line
	9150 5750 9150 6050
$Comp
L power:GND #PWR0101
U 1 1 60D401F2
P 6950 6950
F 0 "#PWR0101" H 6950 6700 50  0001 C CNN
F 1 "GND" H 6955 6777 50  0000 C CNN
F 2 "" H 6950 6950 50  0001 C CNN
F 3 "" H 6950 6950 50  0001 C CNN
	1    6950 6950
	1    0    0    -1  
$EndComp
Wire Wire Line
	6950 6950 6950 6750
Wire Wire Line
	6950 6750 7050 6750
Wire Wire Line
	7050 6750 7050 6650
Connection ~ 6950 6750
Wire Wire Line
	6950 6750 6950 6650
Text Label 7850 6050 2    50   ~ 0
D-
Text Label 7850 6150 2    50   ~ 0
D+
Wire Wire Line
	7550 6150 7850 6150
Wire Wire Line
	7550 6050 7850 6050
Text Label 8000 5950 2    50   ~ 0
NEOPIXEL
Wire Wire Line
	6450 6250 6100 6250
Text Label 6100 6250 0    50   ~ 0
MOSI
Wire Wire Line
	6450 6150 6100 6150
Text Label 6100 6150 0    50   ~ 0
MISO
Wire Wire Line
	6450 6050 6100 6050
Text Label 6100 6050 0    50   ~ 0
SCK
Text Label 6100 6450 0    50   ~ 0
SDA
Text Label 6100 6350 0    50   ~ 0
SCL
Wire Wire Line
	6450 6350 6100 6350
Wire Wire Line
	6450 6450 6100 6450
Text Label 8000 6450 2    50   ~ 0
FLASH_CS
Wire Wire Line
	8000 6450 7550 6450
Text Label 6100 5650 0    50   ~ 0
BTN6
Wire Wire Line
	6100 5650 6450 5650
Text Label 6100 5550 0    50   ~ 0
BTN3
Wire Wire Line
	6100 5550 6450 5550
Text Label 7900 4950 2    50   ~ 0
BTN9
Wire Wire Line
	7900 4950 7550 4950
Text Label 7900 5050 2    50   ~ 0
BTN12
Wire Wire Line
	7900 5050 7550 5050
Wire Wire Line
	7900 5450 7550 5450
Text Label 7900 5450 2    50   ~ 0
BTN11
Wire Wire Line
	7900 5150 7550 5150
Text Label 7900 5150 2    50   ~ 0
BTN2
Wire Wire Line
	7900 5250 7550 5250
Text Label 7900 5250 2    50   ~ 0
BTN5
Wire Wire Line
	7900 5350 7550 5350
Text Label 7900 5350 2    50   ~ 0
BTN8
Wire Wire Line
	7900 5550 7550 5550
Text Label 7900 5550 2    50   ~ 0
BTN10
Wire Wire Line
	7900 5650 7550 5650
Text Label 7900 5650 2    50   ~ 0
BTN7
Text Label 6100 5950 0    50   ~ 0
BTN1
Wire Wire Line
	6100 5850 6450 5850
Text Label 6100 5850 0    50   ~ 0
BTN4
Wire Wire Line
	6450 5950 6100 5950
$Comp
L Regulator_Linear:LM1117-3.3 U4
U 1 1 60EFA244
P 2150 9200
F 0 "U4" H 2150 9442 50  0000 C CNN
F 1 "LM1117-3.3" H 2150 9351 50  0000 C CNN
F 2 "Package_TO_SOT_SMD:SOT-223-3_TabPin2" H 2150 9200 50  0001 C CNN
F 3 "http://www.ti.com/lit/ds/symlink/lm1117.pdf" H 2150 9200 50  0001 C CNN
	1    2150 9200
	1    0    0    -1  
$EndComp
$Comp
L Memory_Flash:W25Q32JVSS U3
U 1 1 60EFBDDB
P 9600 9750
F 0 "U3" H 9900 10250 50  0000 C CNN
F 1 "W25Q32JVSN" H 9900 10150 50  0000 C CNN
F 2 "Package_SO:SOIC-8_3.9x4.9mm_P1.27mm" H 9600 9750 50  0001 C CNN
F 3 "http://www.winbond.com/resource-files/w25q32jv%20revg%2003272018%20plus.pdf" H 9600 9750 50  0001 C CNN
	1    9600 9750
	1    0    0    -1  
$EndComp
Wire Wire Line
	1300 9900 1650 9900
Wire Wire Line
	2150 9500 2150 9900
Connection ~ 1300 9200
Connection ~ 1300 9900
Wire Wire Line
	1300 9200 1650 9200
Connection ~ 1650 9200
Wire Wire Line
	1650 9200 1850 9200
Connection ~ 1650 9900
Wire Wire Line
	1650 9900 2150 9900
$Comp
L Device:CP C2
U 1 1 60FC0BF3
P 2600 9550
F 0 "C2" H 2718 9596 50  0000 L CNN
F 1 "10u" H 2718 9505 50  0000 L CNN
F 2 "Capacitor_Tantalum_SMD:CP_EIA-3216-18_Kemet-A_Pad1.58x1.35mm_HandSolder" H 2638 9400 50  0001 C CNN
F 3 "~" H 2600 9550 50  0001 C CNN
	1    2600 9550
	1    0    0    -1  
$EndComp
Connection ~ 2150 9900
Wire Wire Line
	2600 9900 2600 9700
Wire Wire Line
	2150 9900 2600 9900
Wire Wire Line
	2600 9400 2600 9200
Wire Wire Line
	2600 9200 2450 9200
Wire Wire Line
	2600 9900 3000 9900
Connection ~ 2600 9900
Connection ~ 3000 9900
Wire Wire Line
	3000 9900 3400 9900
Wire Wire Line
	2600 9200 3000 9200
Connection ~ 2600 9200
Connection ~ 3000 9200
Wire Wire Line
	3000 9200 3400 9200
$Comp
L power:+3.3V #PWR0103
U 1 1 61038460
P 3400 9100
F 0 "#PWR0103" H 3400 8950 50  0001 C CNN
F 1 "+3.3V" H 3415 9273 50  0000 C CNN
F 2 "" H 3400 9100 50  0001 C CNN
F 3 "" H 3400 9100 50  0001 C CNN
	1    3400 9100
	1    0    0    -1  
$EndComp
Wire Wire Line
	3400 9100 3400 9200
Connection ~ 3400 9200
$Comp
L power:+5V #PWR0105
U 1 1 6104C382
P 1300 9100
F 0 "#PWR0105" H 1300 8950 50  0001 C CNN
F 1 "+5V" H 1315 9273 50  0000 C CNN
F 2 "" H 1300 9100 50  0001 C CNN
F 3 "" H 1300 9100 50  0001 C CNN
	1    1300 9100
	1    0    0    -1  
$EndComp
$Comp
L Diode:1N4148WS D3
U 1 1 6104FE7D
P 13700 4550
F 0 "D3" V 13746 4470 50  0000 R CNN
F 1 "1N4148WS" V 13655 4470 50  0000 R CNN
F 2 "Diode_SMD:D_SOD-323" H 13700 4375 50  0001 C CNN
F 3 "https://www.vishay.com/docs/85751/1n4148ws.pdf" H 13700 4550 50  0001 C CNN
	1    13700 4550
	0    -1   -1   0   
$EndComp
$Comp
L power:+5V #PWR0106
U 1 1 610627D0
P 13700 4300
F 0 "#PWR0106" H 13700 4150 50  0001 C CNN
F 1 "+5V" H 13715 4473 50  0000 C CNN
F 2 "" H 13700 4300 50  0001 C CNN
F 3 "" H 13700 4300 50  0001 C CNN
	1    13700 4300
	1    0    0    -1  
$EndComp
Wire Wire Line
	13700 4700 13700 4800
Wire Wire Line
	13700 4400 13700 4300
$Comp
L power:+3.3V #PWR0107
U 1 1 610BEFC1
P 9150 5550
F 0 "#PWR0107" H 9150 5400 50  0001 C CNN
F 1 "+3.3V" H 9165 5723 50  0000 C CNN
F 2 "" H 9150 5550 50  0001 C CNN
F 3 "" H 9150 5550 50  0001 C CNN
	1    9150 5550
	1    0    0    -1  
$EndComp
$Comp
L Device:C_Small C14
U 1 1 61109BEF
P 12300 7700
F 0 "C14" H 12208 7654 50  0000 R CNN
F 1 "1u" H 12208 7745 50  0000 R CNN
F 2 "Capacitor_SMD:C_0603_1608Metric_Pad1.05x0.95mm_HandSolder" H 12300 7700 50  0001 C CNN
F 3 "~" H 12300 7700 50  0001 C CNN
F 4 "C14663" H 12300 7700 50  0001 C CNN "LCSC"
	1    12300 7700
	-1   0    0    1   
$EndComp
$Comp
L Device:C_Small C15
U 1 1 6110A640
P 12300 7400
F 0 "C15" H 12208 7354 50  0000 R CNN
F 1 "1u" H 12208 7445 50  0000 R CNN
F 2 "Capacitor_SMD:C_0603_1608Metric_Pad1.05x0.95mm_HandSolder" H 12300 7400 50  0001 C CNN
F 3 "~" H 12300 7400 50  0001 C CNN
F 4 "C14663" H 12300 7400 50  0001 C CNN "LCSC"
	1    12300 7400
	-1   0    0    1   
$EndComp
Wire Wire Line
	12300 7500 12700 7500
Wire Wire Line
	12300 7300 12600 7300
Wire Wire Line
	12600 7300 12600 7400
Wire Wire Line
	12600 7400 12700 7400
Wire Wire Line
	12300 7600 12700 7600
Wire Wire Line
	12700 7700 12600 7700
Wire Wire Line
	12600 7700 12600 7800
Wire Wire Line
	12600 7800 12300 7800
$Comp
L MCU_ST_STM32L0:STM32L052K6Tx U1
U 1 1 60D3E060
P 7050 5650
F 0 "U1" H 7450 4700 50  0000 C CNN
F 1 "STM32L052K6Tx" H 7450 4600 50  0000 C CNN
F 2 "Package_QFP:LQFP-32_7x7mm_P0.8mm" H 6550 4750 50  0001 R CNN
F 3 "http://www.st.com/st-web-ui/static/active/en/resource/technical/document/datasheet/DM00108217.pdf" H 7050 5650 50  0001 C CNN
	1    7050 5650
	1    0    0    -1  
$EndComp
Wire Wire Line
	7750 4400 7750 4500
Wire Wire Line
	7750 4100 7750 4200
Wire Wire Line
	7350 4100 7750 4100
$Comp
L Device:C_Small C6
U 1 1 60DB57BA
P 7750 4300
F 0 "C6" H 7658 4254 50  0000 R CNN
F 1 "100n" H 7658 4345 50  0000 R CNN
F 2 "Capacitor_SMD:C_0603_1608Metric_Pad1.05x0.95mm_HandSolder" H 7750 4300 50  0001 C CNN
F 3 "~" H 7750 4300 50  0001 C CNN
F 4 "C14663" H 7750 4300 50  0001 C CNN "LCSC"
	1    7750 4300
	-1   0    0    1   
$EndComp
Wire Wire Line
	7350 4100 7350 4200
Wire Wire Line
	7350 4500 7350 4400
$Comp
L power:GND #PWR0110
U 1 1 60DB57C2
P 8150 4600
F 0 "#PWR0110" H 8150 4350 50  0001 C CNN
F 1 "GND" H 8155 4427 50  0000 C CNN
F 2 "" H 8150 4600 50  0001 C CNN
F 3 "" H 8150 4600 50  0001 C CNN
	1    8150 4600
	1    0    0    -1  
$EndComp
$Comp
L Device:C_Small C5
U 1 1 60DB57C9
P 7350 4300
F 0 "C5" H 7258 4254 50  0000 R CNN
F 1 "100n" H 7258 4345 50  0000 R CNN
F 2 "Capacitor_SMD:C_0603_1608Metric_Pad1.05x0.95mm_HandSolder" H 7350 4300 50  0001 C CNN
F 3 "~" H 7350 4300 50  0001 C CNN
F 4 "C14663" H 7350 4300 50  0001 C CNN "LCSC"
	1    7350 4300
	-1   0    0    1   
$EndComp
Connection ~ 7350 4100
$Comp
L Device:C_Small C7
U 1 1 60DB57D2
P 8150 4300
F 0 "C7" H 8058 4254 50  0000 R CNN
F 1 "100n" H 8058 4345 50  0000 R CNN
F 2 "Capacitor_SMD:C_0603_1608Metric_Pad1.05x0.95mm_HandSolder" H 8150 4300 50  0001 C CNN
F 3 "~" H 8150 4300 50  0001 C CNN
F 4 "C14663" H 8150 4300 50  0001 C CNN "LCSC"
	1    8150 4300
	-1   0    0    1   
$EndComp
Wire Wire Line
	7750 4100 8150 4100
Wire Wire Line
	8150 4100 8150 4200
Connection ~ 7750 4100
Wire Wire Line
	8150 4500 8150 4400
Wire Wire Line
	6950 4000 6950 4100
Connection ~ 6950 4100
Text Label 6100 4950 0    50   ~ 0
RESET
Wire Wire Line
	6100 4950 6450 4950
$Comp
L power:+3.3V #PWR0111
U 1 1 6104AAC7
P 6950 4000
F 0 "#PWR0111" H 6950 3850 50  0001 C CNN
F 1 "+3.3V" H 6965 4173 50  0000 C CNN
F 2 "" H 6950 4000 50  0001 C CNN
F 3 "" H 6950 4000 50  0001 C CNN
	1    6950 4000
	1    0    0    -1  
$EndComp
$Comp
L power:+3.3V #PWR0114
U 1 1 6126553F
P 6200 8900
F 0 "#PWR0114" H 6200 8750 50  0001 C CNN
F 1 "+3.3V" H 6215 9073 50  0000 C CNN
F 2 "" H 6200 8900 50  0001 C CNN
F 3 "" H 6200 8900 50  0001 C CNN
	1    6200 8900
	1    0    0    -1  
$EndComp
$Comp
L power:+5V #PWR0115
U 1 1 61270E18
P 2550 4700
F 0 "#PWR0115" H 2550 4550 50  0001 C CNN
F 1 "+5V" H 2565 4873 50  0000 C CNN
F 2 "" H 2550 4700 50  0001 C CNN
F 3 "" H 2550 4700 50  0001 C CNN
	1    2550 4700
	1    0    0    -1  
$EndComp
$Comp
L power:+3.3V #PWR0116
U 1 1 612B19C3
P 9600 9050
F 0 "#PWR0116" H 9600 8900 50  0001 C CNN
F 1 "+3.3V" H 9615 9223 50  0000 C CNN
F 2 "" H 9600 9050 50  0001 C CNN
F 3 "" H 9600 9050 50  0001 C CNN
	1    9600 9050
	1    0    0    -1  
$EndComp
Wire Wire Line
	9600 9050 9600 9150
Wire Wire Line
	9600 9150 10050 9150
Connection ~ 9600 9150
Wire Wire Line
	9600 9150 9600 9350
$Comp
L authstick:SE050xxHQ1 U2
U 1 1 61337103
P 6400 9650
F 0 "U2" H 6600 9061 50  0000 C CNN
F 1 "SE050xxHQ1" H 6600 8970 50  0000 C CNN
F 2 "Package_DFN_QFN:QFN-20-1EP_3x3mm_P0.4mm_EP1.65x1.65mm" H 6400 9050 50  0001 C CNN
F 3 "" H 6400 9650 50  0001 C CNN
	1    6400 9650
	1    0    0    -1  
$EndComp
Wire Wire Line
	6200 10250 6300 10250
Wire Wire Line
	6300 10250 6300 10150
Connection ~ 6200 10250
Wire Wire Line
	6200 10250 6200 10150
Wire Wire Line
	6200 9000 6200 9150
Wire Wire Line
	5450 9100 5450 9000
Wire Wire Line
	5450 9000 5600 9000
$Comp
L power:GND #PWR0117
U 1 1 613B1035
P 7400 10050
F 0 "#PWR0117" H 7400 9800 50  0001 C CNN
F 1 "GND" H 7405 9877 50  0000 C CNN
F 2 "" H 7400 10050 50  0001 C CNN
F 3 "" H 7400 10050 50  0001 C CNN
	1    7400 10050
	1    0    0    -1  
$EndComp
Wire Wire Line
	7250 9350 7400 9350
Wire Wire Line
	7400 9350 7400 9450
Wire Wire Line
	7250 9450 7400 9450
Connection ~ 7400 9450
Wire Wire Line
	7400 9450 7400 9750
NoConn ~ 6500 9150
NoConn ~ 6400 9150
Wire Wire Line
	7250 9750 7400 9750
Connection ~ 7400 9750
Wire Wire Line
	7400 9750 7400 10050
NoConn ~ 7250 9850
NoConn ~ 7250 9950
NoConn ~ 7250 9650
Wire Wire Line
	5800 9000 5850 9000
Wire Wire Line
	5950 9550 5850 9550
Wire Wire Line
	5850 9550 5850 9000
Connection ~ 5850 9000
Wire Wire Line
	5850 9000 6200 9000
$Comp
L power:GND #PWR0118
U 1 1 6162B228
P 12050 8700
F 0 "#PWR0118" H 12050 8450 50  0001 C CNN
F 1 "GND" H 12055 8527 50  0000 C CNN
F 2 "" H 12050 8700 50  0001 C CNN
F 3 "" H 12050 8700 50  0001 C CNN
	1    12050 8700
	1    0    0    -1  
$EndComp
Wire Wire Line
	12050 8700 12050 8600
Text Label 8000 5850 2    50   ~ 0
DISP_RST
$Comp
L Device:C_Small C16
U 1 1 617FB4B1
P 12400 8700
F 0 "C16" H 12308 8654 50  0000 R CNN
F 1 "2u2" H 12308 8745 50  0000 R CNN
F 2 "Capacitor_SMD:C_0603_1608Metric_Pad1.05x0.95mm_HandSolder" H 12400 8700 50  0001 C CNN
F 3 "~" H 12400 8700 50  0001 C CNN
F 4 "C14663" H 12400 8700 50  0001 C CNN "LCSC"
	1    12400 8700
	-1   0    0    1   
$EndComp
Wire Wire Line
	12400 8600 12400 8500
Wire Wire Line
	12400 8500 12700 8500
$Comp
L power:GND #PWR02
U 1 1 61807FCE
P 12400 8900
F 0 "#PWR02" H 12400 8650 50  0001 C CNN
F 1 "GND" H 12405 8727 50  0000 C CNN
F 2 "" H 12400 8900 50  0001 C CNN
F 3 "" H 12400 8900 50  0001 C CNN
	1    12400 8900
	1    0    0    -1  
$EndComp
Wire Wire Line
	12400 8900 12400 8800
$Comp
L Device:R_Small R4
U 1 1 61815303
P 12050 8500
F 0 "R4" H 12109 8546 50  0000 L CNN
F 1 "390k" H 12109 8455 50  0000 L CNN
F 2 "Resistor_SMD:R_0603_1608Metric_Pad1.05x0.95mm_HandSolder" H 12050 8500 50  0001 C CNN
F 3 "~" H 12050 8500 50  0001 C CNN
	1    12050 8500
	1    0    0    -1  
$EndComp
Wire Wire Line
	12050 8400 12050 8200
Wire Wire Line
	12050 8200 12700 8200
Wire Wire Line
	12700 8100 12300 8100
Text Label 12300 8100 0    50   ~ 0
SDA
Text Label 12300 8000 0    50   ~ 0
SCL
Wire Wire Line
	12700 8000 12300 8000
$Comp
L power:GND #PWR0112
U 1 1 611A27B5
P 13350 8800
F 0 "#PWR0112" H 13350 8550 50  0001 C CNN
F 1 "GND" H 13355 8627 50  0000 C CNN
F 2 "" H 13350 8800 50  0001 C CNN
F 3 "" H 13350 8800 50  0001 C CNN
	1    13350 8800
	1    0    0    -1  
$EndComp
Wire Wire Line
	13350 8700 13350 8800
$Comp
L power:+3.3V #PWR0108
U 1 1 610EF339
P 13150 6850
F 0 "#PWR0108" H 13150 6700 50  0001 C CNN
F 1 "+3.3V" H 13165 7023 50  0000 C CNN
F 2 "" H 13150 6850 50  0001 C CNN
F 3 "" H 13150 6850 50  0001 C CNN
	1    13150 6850
	1    0    0    -1  
$EndComp
$Comp
L Device:C_Small C13
U 1 1 6112F1A5
P 13950 7300
F 0 "C13" H 13858 7254 50  0000 R CNN
F 1 "100n" H 13858 7345 50  0000 R CNN
F 2 "Capacitor_SMD:C_0603_1608Metric_Pad1.05x0.95mm_HandSolder" H 13950 7300 50  0001 C CNN
F 3 "~" H 13950 7300 50  0001 C CNN
F 4 "C14663" H 13950 7300 50  0001 C CNN "LCSC"
	1    13950 7300
	-1   0    0    1   
$EndComp
Wire Wire Line
	13550 7100 13950 7100
Wire Wire Line
	13950 7100 13950 7200
$Comp
L power:GND #PWR0109
U 1 1 6113A2A0
P 13950 7600
F 0 "#PWR0109" H 13950 7350 50  0001 C CNN
F 1 "GND" H 13955 7427 50  0000 C CNN
F 2 "" H 13950 7600 50  0001 C CNN
F 3 "" H 13950 7600 50  0001 C CNN
	1    13950 7600
	1    0    0    -1  
$EndComp
$Comp
L Device:CP C12
U 1 1 611ACCC3
P 14400 7300
F 0 "C12" H 14518 7346 50  0000 L CNN
F 1 "10u" H 14518 7255 50  0000 L CNN
F 2 "Capacitor_Tantalum_SMD:CP_EIA-3216-18_Kemet-A_Pad1.58x1.35mm_HandSolder" H 14438 7150 50  0001 C CNN
F 3 "~" H 14400 7300 50  0001 C CNN
	1    14400 7300
	1    0    0    -1  
$EndComp
Wire Wire Line
	13950 7100 14400 7100
Wire Wire Line
	14400 7100 14400 7150
Connection ~ 13950 7100
Wire Wire Line
	13950 7500 14400 7500
Wire Wire Line
	14400 7500 14400 7450
Connection ~ 13950 7500
Wire Wire Line
	13950 7500 13950 7600
Wire Wire Line
	13950 7400 13950 7500
$Comp
L Device:C_Small C11
U 1 1 611E21F3
P 14800 7300
F 0 "C11" H 14708 7254 50  0000 R CNN
F 1 "100n" H 14708 7345 50  0000 R CNN
F 2 "Capacitor_SMD:C_0603_1608Metric_Pad1.05x0.95mm_HandSolder" H 14800 7300 50  0001 C CNN
F 3 "~" H 14800 7300 50  0001 C CNN
F 4 "C14663" H 14800 7300 50  0001 C CNN "LCSC"
	1    14800 7300
	-1   0    0    1   
$EndComp
Wire Wire Line
	13150 6950 13350 6950
$Comp
L power:GND #PWR0113
U 1 1 6120EAFC
P 14800 7600
F 0 "#PWR0113" H 14800 7350 50  0001 C CNN
F 1 "GND" H 14805 7427 50  0000 C CNN
F 2 "" H 14800 7600 50  0001 C CNN
F 3 "" H 14800 7600 50  0001 C CNN
	1    14800 7600
	1    0    0    -1  
$EndComp
Wire Wire Line
	14800 7400 14800 7500
Wire Wire Line
	13550 7100 13550 7200
Wire Wire Line
	14800 6950 14800 7200
Wire Wire Line
	13150 6850 13150 6950
Connection ~ 13150 6950
$Comp
L Device:C_Small C10
U 1 1 6189C19E
P 15200 7300
F 0 "C10" H 15108 7254 50  0000 R CNN
F 1 "100n" H 15108 7345 50  0000 R CNN
F 2 "Capacitor_SMD:C_0603_1608Metric_Pad1.05x0.95mm_HandSolder" H 15200 7300 50  0001 C CNN
F 3 "~" H 15200 7300 50  0001 C CNN
F 4 "C14663" H 15200 7300 50  0001 C CNN "LCSC"
	1    15200 7300
	-1   0    0    1   
$EndComp
Wire Wire Line
	15200 7400 15200 7500
Wire Wire Line
	15200 6950 15200 7200
Wire Wire Line
	14800 6950 15200 6950
Connection ~ 14800 6950
Wire Wire Line
	14800 7500 15200 7500
Connection ~ 14800 7500
Wire Wire Line
	14800 7500 14800 7600
Wire Wire Line
	13150 6950 13150 7200
Wire Wire Line
	13350 6950 13350 7200
Connection ~ 13350 6950
Wire Wire Line
	13350 6950 14800 6950
$Comp
L authstick:ER-OLED0.49-1 D1
U 1 1 60EF6478
P 13350 7950
F 0 "D1" H 13728 7996 50  0000 L CNN
F 1 "ER-OLED0.49-1" H 13728 7905 50  0000 L CNN
F 2 "authstick:ER-OLED0.49-1_Flipped" H 13350 7900 50  0001 C CNN
F 3 "" H 13350 7900 50  0001 C CNN
	1    13350 7950
	1    0    0    -1  
$EndComp
Wire Wire Line
	7350 4500 7750 4500
Connection ~ 7750 4500
Wire Wire Line
	7750 4500 8150 4500
Wire Wire Line
	6950 4100 6950 4650
Connection ~ 8150 4500
Wire Wire Line
	8150 4600 8150 4500
Wire Wire Line
	6950 4100 7350 4100
Wire Wire Line
	7050 4750 7050 4650
Wire Wire Line
	7050 4650 6950 4650
Connection ~ 6950 4650
Wire Wire Line
	6950 4650 6950 4750
Wire Wire Line
	7050 4650 7150 4650
Wire Wire Line
	7150 4650 7150 4750
Connection ~ 7050 4650
Text Label 8000 6250 2    50   ~ 0
SWDIO
Text Label 8000 6350 2    50   ~ 0
SWCLK
Wire Wire Line
	8000 6250 7550 6250
Wire Wire Line
	8000 6350 7550 6350
Wire Wire Line
	8000 5950 7550 5950
Wire Wire Line
	7550 5850 8000 5850
$Comp
L Graphic:Logo_Open_Hardware_Large LOGO1
U 1 1 60AF3BE3
P 15400 9400
F 0 "LOGO1" H 15400 9900 50  0001 C CNN
F 1 "Logo_Open_Hardware_Large" H 15400 9000 50  0001 C CNN
F 2 "Symbol:OSHW-Logo_5.7x6mm_SilkScreen" H 15400 9400 50  0001 C CNN
F 3 "~" H 15400 9400 50  0001 C CNN
	1    15400 9400
	1    0    0    -1  
$EndComp
Text Label 5400 5150 0    50   ~ 0
BOOT0
Wire Wire Line
	5400 5150 5750 5150
Text Label 1700 2850 0    50   ~ 0
BOOT0
Wire Wire Line
	1700 2850 2050 2850
Text Label 1700 3050 0    50   ~ 0
SWDIO
Text Label 1700 3250 0    50   ~ 0
SWCLK
Wire Wire Line
	1700 3050 2050 3050
Wire Wire Line
	1700 3250 2050 3250
$Comp
L power:GND #PWR03
U 1 1 611BD95C
P 1850 3600
F 0 "#PWR03" H 1850 3350 50  0001 C CNN
F 1 "GND" H 1855 3427 50  0000 C CNN
F 2 "" H 1850 3600 50  0001 C CNN
F 3 "" H 1850 3600 50  0001 C CNN
	1    1850 3600
	1    0    0    -1  
$EndComp
Wire Wire Line
	1850 3600 1850 3450
$Comp
L Connector:TestPoint TP5
U 1 1 611E0CD5
P 2050 3250
F 0 "TP5" V 2004 3438 50  0000 L CNN
F 1 "TestPoint" V 2095 3438 50  0000 L CNN
F 2 "TestPoint:TestPoint_Pad_D1.5mm" H 2250 3250 50  0001 C CNN
F 3 "~" H 2250 3250 50  0001 C CNN
	1    2050 3250
	0    1    1    0   
$EndComp
$Comp
L Connector:TestPoint TP4
U 1 1 61203BF8
P 2050 3050
F 0 "TP4" V 2004 3238 50  0000 L CNN
F 1 "TestPoint" V 2095 3238 50  0000 L CNN
F 2 "TestPoint:TestPoint_Pad_D1.5mm" H 2250 3050 50  0001 C CNN
F 3 "~" H 2250 3050 50  0001 C CNN
	1    2050 3050
	0    1    1    0   
$EndComp
$Comp
L Connector:TestPoint TP3
U 1 1 61203DC1
P 2050 2850
F 0 "TP3" V 2004 3038 50  0000 L CNN
F 1 "TestPoint" V 2095 3038 50  0000 L CNN
F 2 "TestPoint:TestPoint_Pad_D1.5mm" H 2250 2850 50  0001 C CNN
F 3 "~" H 2250 2850 50  0001 C CNN
	1    2050 2850
	0    1    1    0   
$EndComp
$Comp
L Connector:TestPoint TP6
U 1 1 6120405D
P 2050 3450
F 0 "TP6" V 2004 3638 50  0000 L CNN
F 1 "TestPoint" V 2095 3638 50  0000 L CNN
F 2 "TestPoint:TestPoint_Pad_D1.5mm" H 2250 3450 50  0001 C CNN
F 3 "~" H 2250 3450 50  0001 C CNN
	1    2050 3450
	0    1    1    0   
$EndComp
Wire Wire Line
	2050 3450 1850 3450
$Comp
L power:+3.3V #PWR01
U 1 1 612112FA
P 1850 2300
F 0 "#PWR01" H 1850 2150 50  0001 C CNN
F 1 "+3.3V" H 1865 2473 50  0000 C CNN
F 2 "" H 1850 2300 50  0001 C CNN
F 3 "" H 1850 2300 50  0001 C CNN
	1    1850 2300
	1    0    0    -1  
$EndComp
$Comp
L Connector:TestPoint TP1
U 1 1 6121CE2B
P 2050 2450
F 0 "TP1" V 2004 2638 50  0000 L CNN
F 1 "TestPoint" V 2095 2638 50  0000 L CNN
F 2 "TestPoint:TestPoint_Pad_D1.5mm" H 2250 2450 50  0001 C CNN
F 3 "~" H 2250 2450 50  0001 C CNN
	1    2050 2450
	0    1    1    0   
$EndComp
Wire Wire Line
	2050 2450 1850 2450
Wire Wire Line
	1850 2450 1850 2300
$Comp
L Connector:TestPoint TP2
U 1 1 6123546C
P 2050 2650
F 0 "TP2" V 2004 2838 50  0000 L CNN
F 1 "TestPoint" V 2095 2838 50  0000 L CNN
F 2 "TestPoint:TestPoint_Pad_D1.5mm" H 2250 2650 50  0001 C CNN
F 3 "~" H 2250 2650 50  0001 C CNN
	1    2050 2650
	0    1    1    0   
$EndComp
Text Label 1700 2650 0    50   ~ 0
RESET
Wire Wire Line
	1700 2650 2050 2650
$Comp
L Device:R_Small R5
U 1 1 6124F385
P 5750 5400
F 0 "R5" H 5691 5354 50  0000 R CNN
F 1 "10k" H 5691 5445 50  0000 R CNN
F 2 "Resistor_SMD:R_0603_1608Metric_Pad1.05x0.95mm_HandSolder" H 5750 5400 50  0001 C CNN
F 3 "~" H 5750 5400 50  0001 C CNN
	1    5750 5400
	-1   0    0    1   
$EndComp
Wire Wire Line
	5750 5300 5750 5150
Connection ~ 5750 5150
Wire Wire Line
	5750 5150 6450 5150
$Comp
L power:GND #PWR04
U 1 1 6126A28D
P 5750 5600
F 0 "#PWR04" H 5750 5350 50  0001 C CNN
F 1 "GND" H 5755 5427 50  0000 C CNN
F 2 "" H 5750 5600 50  0001 C CNN
F 3 "" H 5750 5600 50  0001 C CNN
	1    5750 5600
	1    0    0    -1  
$EndComp
Wire Wire Line
	5750 5600 5750 5500
$EndSCHEMATC
